 253
   0   0  16   1
0000000000000000
   1   1  16  16
1000000000000000
0000000000000000
0000000000000000
0000000000000000
0000000000000000
0000000000000000
0000000000000000
0000000000000000
0000000000000000
0000000000000000
0000000000000000
0000000000000000
0000000000000000
0000000000000000
0000000000000000
0000000000000000
   2   2  16  16
1000000000000000
0000000000000000
0000000000000000
0000000000000000
0000000000000000
0000000000000000
0000000000000000
0000000000000000
0000000010000000
0000000000000000
0000000000000000
0000000000000000
0000000000000000
0000000000000000
0000000000000000
0000000000000000
   3   3  16   8
1000000010000000
0000000000000000
0000000000000000
0000000000000000
0000000000000000
0000000000000000
0000000000000000
0000000000000000
   4   4  16   8
1000000010000000
0000000000000000
0000000000000000
0000000000000000
0000100000001000
0000000000000000
0000000000000000
0000000000000000
   5   5  16   4
1000100010001000
0000000000000000
0000000000000000
0000000000000000
  10  10  16   1
0000000000000000
  11  11  16  16
1000000000000000
1000000000000000
0000000000000000
0000000000000000
0000000000000000
0000000000000000
0000000000000000
0000000000000000
0000000000000000
0000000000000000
0000000000000000
0000000000000000
0000000000000000
0000000000000000
0000000000000000
0000000000000000
  12  12  16  16
1000000000000000
1000000000000000
0000000000000000
0000000000000000
0000000000000000
0000000000000000
0000000000000000
0000000000000000
0000000010000000
0000000010000000
0000000000000000
0000000000000000
0000000000000000
0000000000000000
0000000000000000
0000000000000000
  13  13  16   8
1000000010000000
1000000010000000
0000000000000000
0000000000000000
0000000000000000
0000000000000000
0000000000000000
0000000000000000
  14  14  16   8
1000000010000000
1000000010000000
0000000000000000
0000000000000000
0000100000001000
0000100000001000
0000000000000000
0000000000000000
  15  15  16   4
1000100010001000
1000100010001000
0000000000000000
0000000000000000
  20  20  16   1
0000000000000000
  21  21  16  16
1100000000000000
1100000000000000
0000000000000000
0000000000000000
0000000000000000
0000000000000000
0000000000000000
0000000000000000
0000000000000000
0000000000000000
0000000000000000
0000000000000000
0000000000000000
0000000000000000
0000000000000000
0000000000000000
  22  22  16  16
1100000000000000
1100000000000000
0000000000000000
0000000000000000
0000000000000000
0000000000000000
0000000000000000
0000000000000000
0000000011000000
0000000011000000
0000000000000000
0000000000000000
0000000000000000
0000000000000000
0000000000000000
0000000000000000
  23  23  16   8
1100000011000000
1100000011000000
0000000000000000
0000000000000000
0000000000000000
0000000000000000
0000000000000000
0000000000000000
  24  24  16   8
1100000011000000
1100000011000000
0000000000000000
0000000000000000
0000110000001100
0000110000001100
0000000000000000
0000000000000000
  25  25  16   4
1100110011001100
1100110011001100
0000000000000000
0000000000000000
  30  30  16   1
0000000000000000
  31  31  16  16
1100000000000000
1100000000000000
1100000000000000
0000000000000000
0000000000000000
0000000000000000
0000000000000000
0000000000000000
0000000000000000
0000000000000000
0000000000000000
0000000000000000
0000000000000000
0000000000000000
0000000000000000
0000000000000000
  32  32  16  16
1100000000000000
1100000000000000
1100000000000000
0000000000000000
0000000000000000
0000000000000000
0000000000000000
0000000000000000
0000000011000000
0000000011000000
0000000011000000
0000000000000000
0000000000000000
0000000000000000
0000000000000000
0000000000000000
  33  33  16   8
1100000011000000
1100000011000000
1100000011000000
0000000000000000
0000000000000000
0000000000000000
0000000000000000
0000000000000000
  34  34  16   8
1100000011000000
1100000011000000
1100000011000000
0000000000000000
0000110000001100
0000110000001100
0000110000001100
0000000000000000
  35  35  16   4
1100110011001100
1100110011001100
1100110011001100
0000000000000000
  40  40  16   1
0000000000000000
  41  41  16  16
1100000000000000
1110000000000001
1100000000000000
0000000000000000
0000000000000000
0000000000000000
0000000000000000
0000000000000000
0000000000000000
0000000000000000
0000000000000000
0000000000000000
0000000000000000
0000000000000000
0000000000000000
0000000000000000
  42  42  16  16
1100000000000000
1110000000000001
1100000000000000
0000000000000000
0000000000000000
0000000000000000
0000000000000000
0000000000000000
0000000011000000
0000000111100000
0000000011000000
0000000000000000
0000000000000000
0000000000000000
0000000000000000
0000000000000000
  43  43  16   8
1100000011000000
1110000111100001
1100000011000000
0000000000000000
0000000000000000
0000000000000000
0000000000000000
0000000000000000
  44  44  16   8
1100000011000000
1110000111100001
1100000011000000
0000000000000000
0000110000001100
0001111000011110
0000110000001100
0000000000000000
  45  45  16   4
1100110011001100
1111111111111111
1100110011001100
0000000000000000
  50  50  16   1
0000000000000000
  51  51  16  16
1100000000000000
1110000000000001
1110000000000001
1100000000000000
0000000000000000
0000000000000000
0000000000000000
0000000000000000
0000000000000000
0000000000000000
0000000000000000
0000000000000000
0000000000000000
0000000000000000
0000000000000000
0000000000000000
  52  52  16  16
1100000000000000
1110000000000001
1110000000000001
1100000000000000
0000000000000000
0000000000000000
0000000000000000
0000000000000000
0000000011000000
0000000111100000
0000000111100000
0000000011000000
0000000000000000
0000000000000000
0000000000000000
0000000000000000
  53  53  16   8
1100000011000000
1110000111100001
1110000111100001
1100000011000000
0000000000000000
0000000000000000
0000000000000000
0000000000000000
  54  54  16   8
1100000011000000
1110000111100001
1110000111100001
1100000011000000
0000110000001100
0001111000011110
0001111000011110
0000110000001100
  55  55  16   4
1100110011001100
1111111111111111
1111111111111111
1100110011001100
 100 300  16   1
0000000000000000
 101 301  16  16
1111111111111111
0000000000000000
0000000000000000
0000000000000000
0000000000000000
0000000000000000
0000000000000000
0000000000000000
0000000000000000
0000000000000000
0000000000000000
0000000000000000
0000000000000000
0000000000000000
0000000000000000
0000000000000000
 102 302  16   8
1111111111111111
0000000000000000
0000000000000000
0000000000000000
0000000000000000
0000000000000000
0000000000000000
0000000000000000
 103 303  16   4
1111111111111111
0000000000000000
0000000000000000
0000000000000000
 104 304  16   2
1111111111111111
0000000000000000
 105 305  16   1
1111111111111111
 110 310  16   1
0000000000000000
 111 311  16  16
1111111111111111
1111111111111111
0000000000000000
0000000000000000
0000000000000000
0000000000000000
0000000000000000
0000000000000000
0000000000000000
0000000000000000
0000000000000000
0000000000000000
0000000000000000
0000000000000000
0000000000000000
0000000000000000
 112 312  16   8
1111111111111111
1111111111111111
0000000000000000
0000000000000000
0000000000000000
0000000000000000
0000000000000000
0000000000000000
 113 313  16   4
1111111111111111
1111111111111111
0000000000000000
0000000000000000
 114 314  16   2
1111111111111111
1111111111111111
 115 315  16   1
1111111111111111
 120 320  16   1
0000000000000000
 121 321  16  16
1111111111111111
1111111111111111
1111111111111111
0000000000000000
0000000000000000
0000000000000000
0000000000000000
0000000000000000
0000000000000000
0000000000000000
0000000000000000
0000000000000000
0000000000000000
0000000000000000
0000000000000000
0000000000000000
 122 322  16   8
1111111111111111
1111111111111111
1111111111111111
0000000000000000
0000000000000000
0000000000000000
0000000000000000
0000000000000000
 123 323  16   4
1111111111111111
1111111111111111
1111111111111111
0000000000000000
 124 324  16   2
1111111111111111
1111111111111111
 125 325  16   1
1111111111111111
 130 330  16   1
0000000000000000
 131 331  16  16
1111111111111111
1111111111111111
1111111111111111
1111111111111111
0000000000000000
0000000000000000
0000000000000000
0000000000000000
0000000000000000
0000000000000000
0000000000000000
0000000000000000
0000000000000000
0000000000000000
0000000000000000
0000000000000000
 132 332  16   8
1111111111111111
1111111111111111
1111111111111111
1111111111111111
0000000000000000
0000000000000000
0000000000000000
0000000000000000
 133 333  16   4
1111111111111111
1111111111111111
1111111111111111
1111111111111111
 134 334  16   1
1111111111111111
 135 335  16   1
1111111111111111
 140 340  16   1
0000000000000000
 141 341  16  16
1111111111111111
1111111111111111
1111111111111111
1111111111111111
1111111111111111
1111111111111111
0000000000000000
0000000000000000
0000000000000000
0000000000000000
0000000000000000
0000000000000000
0000000000000000
0000000000000000
0000000000000000
0000000000000000
 142 342  16   8
1111111111111111
1111111111111111
1111111111111111
1111111111111111
1111111111111111
1111111111111111
0000000000000000
0000000000000000
 143 343  16   4
1111111111111111
1111111111111111
1111111111111111
1111111111111111
 144 344  16   1
1111111111111111
 145 345  16   1
1111111111111111
 150 350  16   1
0000000000000000
 151 351  16  16
1111111111111111
1111111111111111
1111111111111111
1111111111111111
1111111111111111
1111111111111111
1111111111111111
1111111111111111
0000000000000000
0000000000000000
0000000000000000
0000000000000000
0000000000000000
0000000000000000
0000000000000000
0000000000000000
 152 352  16   8
1111111111111111
1111111111111111
1111111111111111
1111111111111111
1111111111111111
1111111111111111
1111111111111111
1111111111111111
 153 353  16   4
1111111111111111
1111111111111111
1111111111111111
1111111111111111
 154 354  16   1
1111111111111111
 155 355  16   1
1111111111111111
 200 400  16   1
0000000000000000
 201 401  16  16
1000000000000000
0000000000000001
0000000000000010
0000000000000100
0000000000001000
0000000000010000
0000000000100000
0000000001000000
0000000010000000
0000000100000000
0000001000000000
0000010000000000
0000100000000000
0001000000000000
0010000000000000
0100000000000000
 202 402  16   8
1000000010000000
0000000100000001
0000001000000010
0000010000000100
0000100000001000
0001000000010000
0010000000100000
0100000001000000
 203 403  16   4
1000100010001000
0001000100010001
0010001000100010
0100010001000100
 204 404  16   2
1010101010101010
0101010101010101
 205 405  16   1
1111111111111111
 210 410  16   1
0000000000000000
 211 411  16  16
1100000000000000
1000000000000001
0000000000000011
0000000000000110
0000000000001100
0000000000011000
0000000000110000
0000000001100000
0000000011000000
0000000110000000
0000001100000000
0000011000000000
0000110000000000
0001100000000000
0011000000000000
0110000000000000
 212 412  16   8
1100000011000000
1000000110000001
0000001100000011
0000011000000110
0000110000001100
0001100000011000
0011000000110000
0110000001100000
 213 413  16   4
1100110011001100
1001100110011001
0011001100110011
0110011001100110
 214 414  16   2
1111111111111111
1111111111111111
 215 415  16   1
1111111111111111
 220 420  16   1
0000000000000000
 221 421  16  16
1110000000000000
1100000000000001
1000000000000011
0000000000000111
0000000000001110
0000000000011100
0000000000111000
0000000001110000
0000000011100000
0000000111000000
0000001110000000
0000011100000000
0000111000000000
0001110000000000
0011100000000000
0111000000000000
 222 422  16   8
1110000011100000
1100000111000001
1000001110000011
0000011100000111
0000111000001110
0001110000011100
0011100000111000
0111000001110000
 223 423  16   4
1110111011101110
1101110111011101
1011101110111011
0111011101110111
 224 424  16   2
1111111111111111
1111111111111111
 225 425  16   1
1111111111111111
 230 430  16   1
0000000000000000
 231 431  16  16
1111000000000000
1110000000000001
1100000000000011
1000000000000111
0000000000001111
0000000000011110
0000000000111100
0000000001111000
0000000011110000
0000000111100000
0000001111000000
0000011110000000
0000111100000000
0001111000000000
0011110000000000
0111100000000000
 232 432  16   8
1111000011110000
1110000111100001
1100001111000011
1000011110000111
0000111100001111
0001111000011110
0011110000111100
0111100001111000
 233 433  16   4
1111111111111111
1111111111111111
1111111111111111
1111111111111111
 234 434  16   1
1111111111111111
 235 435  16   1
1111111111111111
 240 440  16   1
0000000000000000
 241 441  16  16
1111110000000000
1111100000000001
1111000000000011
1110000000000111
1100000000001111
1000000000011111
0000000000111111
0000000001111110
0000000011111100
0000000111111000
0000001111110000
0000011111100000
0000111111000000
0001111110000000
0011111100000000
0111111000000000
 242 442  16   8
1111110011111100
1111100111111001
1111001111110011
1110011111100111
1100111111001111
1001111110011111
0011111100111111
0111111001111110
 243 443  16   4
1111111111111111
1111111111111111
1111111111111111
1111111111111111
 244 444  16   1
1111111111111111
 245 445  16   1
1111111111111111
 250 450  16   1
0000000000000000
 251 451  16  16
1111111100000000
1111111000000001
1111110000000011
1111100000000111
1111000000001111
1110000000011111
1100000000111111
1000000001111111
0000000011111111
0000000111111110
0000001111111100
0000011111111000
0000111111110000
0001111111100000
0011111111000000
0111111110000000
 252 452  16   8
1111111111111111
1111111111111111
1111111111111111
1111111111111111
1111111111111111
1111111111111111
1111111111111111
1111111111111111
 253 453  16   4
1111111111111111
1111111111111111
1111111111111111
1111111111111111
 254 454  16   1
1111111111111111
 255 455  16   1
1111111111111111
 300 100  16   1
0000000000000000
 301 101  16   1
1000000000000000
 302 102  16   1
1000000010000000
 303 103  16   1
1000100010001000
 304 104  16   1
1010101010101010
 305 105  16   1
1111111111111111
 310 110  16   1
0000000000000000
 311 111  16   1
1100000000000000
 312 112  16   1
1100000011000000
 313 113  16   1
1100110011001100
 314 114  16   1
1111111111111111
 315 115  16   1
1111111111111111
 320 120  16   1
0000000000000000
 321 121  16   1
1110000000000000
 322 122  16   1
1110000011100000
 323 123  16   1
1110111011101110
 324 124  16   1
1111111111111111
 325 125  16   1
1111111111111111
 330 130  16   1
0000000000000000
 331 131  16   1
1111000000000000
 332 132  16   1
1111000011110000
 333 133  16   1
1111111111111111
 334 134  16   1
1111111111111111
 335 135  16   1
1111111111111111
 340 140  16   1
0000000000000000
 341 141  16   1
1111110000000000
 342 142  16   1
1111110011111100
 343 143  16   1
1111111111111111
 344 144  16   1
1111111111111111
 345 145  16   1
1111111111111111
 350 150  16   1
0000000000000000
 351 151  16   1
1111111100000000
 352 152  16   1
1111111111111111
 353 153  16   1
1111111111111111
 354 154  16   1
1111111111111111
 355 155  16   1
1111111111111111
 400 200  16   1
0000000000000000
 401 201  16  16
1000000000000000
0100000000000000
0010000000000000
0001000000000000
0000100000000000
0000010000000000
0000001000000000
0000000100000000
0000000010000000
0000000001000000
0000000000100000
0000000000010000
0000000000001000
0000000000000100
0000000000000010
0000000000000001
 402 202  16   8
1000000010000000
0100000001000000
0010000000100000
0001000000010000
0000100000001000
0000010000000100
0000001000000010
0000000100000001
 403 203  16   4
1000100010001000
0100010001000100
0010001000100010
0001000100010001
 404 204  16   2
1010101010101010
0101010101010101
 405 205  16   1
1111111111111111
 410 210  16   1
0000000000000000
 411 211  16  16
1100000000000000
0110000000000000
0011000000000000
0001100000000000
0000110000000000
0000011000000000
0000001100000000
0000000110000000
0000000011000000
0000000001100000
0000000000110000
0000000000011000
0000000000001100
0000000000000110
0000000000000011
1000000000000001
 412 212  16   8
1100000011000000
0110000001100000
0011000000110000
0001100000011000
0000110000001100
0000011000000110
0000001100000011
1000000110000001
 413 213  16   4
1100110011001100
0110011001100110
0011001100110011
1001100110011001
 414 214  16   2
1111111111111111
1111111111111111
 415 215  16   1
1111111111111111
 420 220  16   1
0000000000000000
 421 221  16  16
1110000000000000
0111000000000000
0011100000000000
0001110000000000
0000111000000000
0000011100000000
0000001110000000
0000000111000000
0000000011100000
0000000001110000
0000000000111000
0000000000011100
0000000000001110
0000000000000111
1000000000000011
1100000000000001
 422 222  16   8
1110000011100000
0111000001110000
0011100000111000
0001110000011100
0000111000001110
0000011100000111
1000001110000011
1100000111000001
 423 223  16   4
1110111011101110
0111011101110111
1011101110111011
1101110111011101
 424 224  16   2
1111111111111111
1111111111111111
 425 225  16   1
1111111111111111
 430 230  16   1
0000000000000000
 431 231  16  16
1111000000000000
0111100000000000
0011110000000000
0001111000000000
0000111100000000
0000011110000000
0000001111000000
0000000111100000
0000000011110000
0000000001111000
0000000000111100
0000000000011110
0000000000001111
1000000000000111
1100000000000011
1110000000000001
 432 232  16   8
1111000011110000
0111100001111000
0011110000111100
0001111000011110
0000111100001111
1000011110000111
1100001111000011
1110000111100001
 433 233  16   4
1111111111111111
1111111111111111
1111111111111111
1111111111111111
 434 234  16   1
1111111111111111
 435 235  16   1
1111111111111111
 440 240  16   1
0000000000000000
 441 241  16  16
1111110000000000
0111111000000000
0011111100000000
0001111110000000
0000111111000000
0000011111100000
0000001111110000
0000000111111000
0000000011111100
0000000001111110
0000000000111111
1000000000011111
1100000000001111
1110000000000111
1111000000000011
1111100000000001
 442 242  16   8
1111110011111100
0111111001111110
0011111100111111
1001111110011111
1100111111001111
1110011111100111
1111001111110011
1111100111111001
 443 243  16   4
1111111111111111
1111111111111111
1111111111111111
1111111111111111
 444 244  16   1
1111111111111111
 445 245  16   1
1111111111111111
 450 250  16   1
0000000000000000
 451 251  16  16
1111111100000000
0111111110000000
0011111111000000
0001111111100000
0000111111110000
0000011111111000
0000001111111100
0000000111111110
0000000011111111
1000000001111111
1100000000111111
1110000000011111
1111000000001111
1111100000000111
1111110000000011
1111111000000001
 452 252  16   8
1111111111111111
1111111111111111
1111111111111111
1111111111111111
1111111111111111
1111111111111111
1111111111111111
1111111111111111
 453 253  16   4
1111111111111111
1111111111111111
1111111111111111
1111111111111111
 454 254  16   1
1111111111111111
 455 255  16   1
1111111111111111
 500 500  16   1
0000000000000000
 501 501  16  16
1111111111111111
1000000000000000
1000000000000000
1000000000000000
1000000000000000
1000000000000000
1000000000000000
1000000000000000
1000000000000000
1000000000000000
1000000000000000
1000000000000000
1000000000000000
1000000000000000
1000000000000000
1000000000000000
 502 502  16   8
1111111111111111
1000000010000000
1000000010000000
1000000010000000
1000000010000000
1000000010000000
1000000010000000
1000000010000000
 503 503  16   4
1111111111111111
1000100010001000
1000100010001000
1000100010001000
 504 504  16   2
1111111111111111
1010101010101010
 505 505  16   1
1111111111111111
 510 510  16   1
0000000000000000
 511 511  16  16
1111111111111111
1111111111111111
1100000000000000
1100000000000000
1100000000000000
1100000000000000
1100000000000000
1100000000000000
1100000000000000
1100000000000000
1100000000000000
1100000000000000
1100000000000000
1100000000000000
1100000000000000
1100000000000000
 512 512  16   8
1111111111111111
1111111111111111
1100000011000000
1100000011000000
1100000011000000
1100000011000000
1100000011000000
1100000011000000
 513 513  16   4
1111111111111111
1111111111111111
1100110011001100
1100110011001100
 514 514  16   2
1111111111111111
1111111111111111
 515 515  16   1
1111111111111111
 520 520  16   1
0000000000000000
 521 521  16  16
1111111111111111
1111111111111111
1111111111111111
1110000000000000
1110000000000000
1110000000000000
1110000000000000
1110000000000000
1110000000000000
1110000000000000
1110000000000000
1110000000000000
1110000000000000
1110000000000000
1110000000000000
1110000000000000
 522 522  16   8
1111111111111111
1111111111111111
1111111111111111
1110000011100000
1110000011100000
1110000011100000
1110000011100000
1110000011100000
 523 523  16   4
1111111111111111
1111111111111111
1111111111111111
1110111011101110
 524 524  16   2
1111111111111111
1111111111111111
 525 525  16   1
1111111111111111
 530 530  16   1
0000000000000000
 531 531  16  16
1111111111111111
1111111111111111
1111111111111111
1111111111111111
1111000000000000
1111000000000000
1111000000000000
1111000000000000
1111000000000000
1111000000000000
1111000000000000
1111000000000000
1111000000000000
1111000000000000
1111000000000000
1111000000000000
 532 532  16   8
1111111111111111
1111111111111111
1111111111111111
1111111111111111
1111000011110000
1111000011110000
1111000011110000
1111000011110000
 533 533  16   4
1111111111111111
1111111111111111
1111111111111111
1111111111111111
 534 534  16   1
1111111111111111
 535 535  16   1
1111111111111111
 540 540  16   1
0000000000000000
 541 541  16  16
1111111111111111
1111111111111111
1111111111111111
1111111111111111
1111111111111111
1111111111111111
1111110000000000
1111110000000000
1111110000000000
1111110000000000
1111110000000000
1111110000000000
1111110000000000
1111110000000000
1111110000000000
1111110000000000
 542 542  16   8
1111111111111111
1111111111111111
1111111111111111
1111111111111111
1111111111111111
1111111111111111
1111110011111100
1111110011111100
 543 543  16   4
1111111111111111
1111111111111111
1111111111111111
1111111111111111
 544 544  16   1
1111111111111111
 545 545  16   1
1111111111111111
 550 550  16   1
0000000000000000
 551 551  16  16
1111111111111111
1111111111111111
1111111111111111
1111111111111111
1111111111111111
1111111111111111
1111111111111111
1111111111111111
1111111100000000
1111111100000000
1111111100000000
1111111100000000
1111111100000000
1111111100000000
1111111100000000
1111111100000000
 552 552  16   8
1111111111111111
1111111111111111
1111111111111111
1111111111111111
1111111111111111
1111111111111111
1111111111111111
1111111111111111
 553 553  16   4
1111111111111111
1111111111111111
1111111111111111
1111111111111111
 554 554  16   1
1111111111111111
 555 555  16   1
1111111111111111
 600 600  16   1
0000000000000000
 601 601  16  16
1000000000000000
0100000000000001
0010000000000010
0001000000000100
0000100000001000
0000010000010000
0000001000100000
0000000101000000
0000000010000000
0000000101000000
0000001000100000
0000010000010000
0000100000001000
0001000000000100
0010000000000010
0100000000000001
 602 602  16   8
1000000010000000
0100000101000001
0010001000100010
0001010000010100
0000100000001000
0001010000010100
0010001000100010
0100000101000001
 603 603  16   4
1000100010001000
0101010101010101
0010001000100010
0101010101010101
 604 604  16   2
1010101010101010
0101010101010101
 605 605  16   1
1111111111111111
 610 610  16   1
0000000000000000
 611 611  16  16
1100000000000000
1110000000000001
0011000000000011
0001100000000110
0000110000001100
0000011000011000
0000001100110000
0000000111100000
0000000011000000
0000000111100000
0000001100110000
0000011000011000
0000110000001100
0001100000000110
0011000000000011
1110000000000001
 612 612  16   8
1100000011000000
1110000111100001
0011001100110011
0001111000011110
0000110000001100
0001111000011110
0011001100110011
1110000111100001
 613 613  16   4
1100110011001100
1111111111111111
0011001100110011
1111111111111111
 614 614  16   2
1111111111111111
1111111111111111
 615 615  16   1
1111111111111111
 620 620  16   1
0000000000000000
 621 621  16  16
1110000000000000
1111000000000001
1011100000000011
0001110000000111
0000111000001110
0000011100011100
0000001110111000
0000000111110000
0000000011100000
0000000111110000
0000001110111000
0000011100011100
0000111000001110
0001110000000111
1011100000000011
1111000000000001
 622 622  16   8
1110000011100000
1111000111110001
1011101110111011
0001111100011111
0000111000001110
0001111100011111
1011101110111011
1111000111110001
 623 623  16   4
1110111011101110
1111111111111111
1011101110111011
1111111111111111
 624 624  16   2
1111111111111111
1111111111111111
 625 625  16   1
1111111111111111
 630 630  16   1
0000000000000000
 631 631  16  16
1111000000000000
1111100000000001
1111110000000011
1001111000000111
0000111100001111
0000011110011110
0000001111111100
0000000111111000
0000000011110000
0000000111111000
0000001111111100
0000011110011110
0000111100001111
1001111000000111
1111110000000011
1111100000000001
 632 632  16   8
1111000011110000
1111100111111001
1111111111111111
1001111110011111
0000111100001111
1001111110011111
1111111111111111
1111100111111001
 633 633  16   4
1111111111111111
1111111111111111
1111111111111111
1111111111111111
 634 634  16   1
1111111111111111
 635 635  16   1
1111111111111111
 640 640  16   1
0000000000000000
 641 641  16  16
1111110000000000
1111111000000001
1111111100000011
1111111110000111
1100111111001111
1000011111111111
0000001111111111
0000000111111110
0000000011111100
0000000111111110
0000001111111111
1000011111111111
1100111111001111
1111111110000111
1111111100000011
1111111000000001
 642 642  16   8
1111110011111100
1111111111111111
1111111111111111
1111111111111111
1100111111111111
1111111111111111
1111111111111111
1111111111111111
 643 643  16   4
1111111111111111
1111111111111111
1111111111111111
1111111111111111
 644 644  16   1
1111111111111111
 645 645  16   1
1111111111111111
 650 650  16   1
0000000000000000
 651 651  16  16
1111111100000000
1111111110000001
1111111111000011
1111111111100111
1111111111111111
1110011111111111
1100001111111111
1000000111111111
0000000011111111
1000000111111111
1100001111111111
1110011111111111
1111111111111111
1111111111100111
1111111111000011
1111111110000001
 652 652  16   8
1111111111111111
1111111111111111
1111111111111111
1111111111111111
1111111111111111
1111111111111111
1111111111111111
1111111111111111
 653 653  16   4
1111111111111111
1111111111111111
1111111111111111
1111111111111111
 654 654  16   1
1111111111111111
 655 655  16   1
1111111111111111
 999 999  16   1
1111111111111111
